{
  "data": [
    {
      "headTitle1": "Menu Admin",
      "headTitle2": "Dashboards,Widgets & Layout.",
      "type": "headtitle",
      "role": "1"
    },
    {
      "headTitle1": "Menu Research",
      "headTitle2": "Dashboards,Widgets & Layout.",
      "type": "headtitle",
      "role": "2"
    },
    {
      "headTitle1": "Menu Operator",
      "headTitle2": "Dashboards,Widgets & Layout.",
      "type": "headtitle",
      "role": "3"
    },
    { 
    "path":"/",
      "title": "Dashboard",
      "icon": "home",
      "type": "link",
      "badgeType": "light-primary",
      "badgeValue": "2",
      "role": "1",
      "active": false
    },
    { 
    "path":"/",
      "title": "Dashboard",
      "icon": "home",
      "type": "link",
      "badgeType": "light-primary",
      "badgeValue": "2",
      "role": "2",
      "active": false
    },
    { 
    "path":"/",
      "title": "Dashboard",
      "icon": "home",
      "type": "link",
      "badgeType": "light-primary",
      "badgeValue": "2",
      "role": "3",
      "active": false
    },

    { 
    "path":"/pages/search-customer",
      "title": "Search Customer",
      "icon": "search",
      "type": "link",
      "badgeType": "light-primary",
      "badgeValue": "2",
      "role": "1",
      "active": false
    },
     { 
    "path":"/pages/search-customer",
      "title": "Search Customer",
      "icon": "search",
      "type": "link",
      "badgeType": "light-primary",
      "badgeValue": "2",
      "role": "2",
      "active": false
    },

    { 
    "path":"/pages/upload",
      "title": "Upload File",
      "icon": "file",
      "type": "link",
      "badgeType": "light-primary",
      "badgeValue": "2",
      "role": "1",
      "active": false
    },

    { 
    "path":"/pages/upload",
      "title": "Upload File",
      "icon": "file",
      "type": "link",
      "badgeType": "light-primary",
      "badgeValue": "2",
      "role": "3",
      "active": false
    },

    { 
      "path":"/pages/upload-sre",
        "title": "Upload File Sre",
        "icon": "file",
        "type": "link",
        "badgeType": "light-primary",
        "badgeValue": "2",
        "role": "1",
        "active": false
      },

    { 
    "path":"/pages/generate",
      "title": "Generate",
      "icon": "download",
      "type": "link",
      "badgeType": "light-primary",
      "badgeValue": "2",
      "role": "1",
      "active": false
    },
    { 
    "path":"/pages/generate",
      "title": "Generate",
      "icon": "download",
      "type": "link",
      "badgeType": "light-primary",
      "badgeValue": "2",
      "role": "2",
      "active": false
    },
    
    {
      "headTitle1": "Setting",
      "headTitle2": "Dashboards,Widgets & Layout.",
      "role": "1",
      "type": "headtitle"
    },
    { 
    "path":"/pages/user",
      "title": "User",
      "icon": "user",
      "type": "link",
      "badgeType": "light-primary",
      "role": "1",
      "badgeValue": "2",
      "active": false
    }
  ]
}
